<?xml version="1.0" standalone="no"?>
<!DOCTYPE svg PUBLIC "-//W3C//DTD SVG 1.1//EN" "http://www.w3.org/Graphics/SVG/1.1/DTD/svg11.dtd">
<svg width="455" height="642" viewBox="-220 -334 455 642" xmlns="http://www.w3.org/2000/svg" version="1.1">
<title>OpenSCAD Model</title>
<path d="
M 13.6094,-204 L 27.0588,-204 L 27.0588,-200.01 L 40.6682,-200.01 L 40.6682,-204 L 54.1176,-204
 L 54.1176,-200.01 L 67.7271,-200.01 L 67.7271,-204 L 81.1765,-204 L 81.1765,-200.01 L 94.7859,-200.01
 L 94.7859,-204 L 108.235,-204 L 108.235,-200.01 L 121.845,-200.01 L 121.845,-204 L 135.294,-204
 L 135.294,-200.01 L 148.904,-200.01 L 148.904,-204 L 162.353,-204 L 162.353,-200.01 L 175.962,-200.01
 L 175.962,-204 L 189.412,-204 L 189.412,-200.01 L 203.021,-200.01 L 203.021,-204 L 216.471,-204
 L 216.471,-200.01 L 230.08,-200.01 L 230.08,-215.364 L 234.07,-215.364 L 234.07,-226.807 L 230.08,-226.807
 L 230.08,-238.091 L 234.07,-238.091 L 234.07,-249.535 L 230.08,-249.535 L 230.08,-260.818 L 234.07,-260.818
 L 234.07,-272.262 L 230.08,-272.262 L 230.08,-283.545 L 234.07,-283.545 L 234.07,-294.989 L 230.08,-294.989
 L 230.08,-306.273 L 234.07,-306.273 L 234.07,-317.716 L 230.08,-317.716 L 230.08,-333.07 L 216.471,-333.07
 L 216.471,-329.08 L 203.021,-329.08 L 203.021,-333.07 L 189.412,-333.07 L 189.412,-329.08 L 175.962,-329.08
 L 175.962,-333.07 L 162.353,-333.07 L 162.353,-329.08 L 148.904,-329.08 L 148.904,-333.07 L 135.294,-333.07
 L 135.294,-329.08 L 121.845,-329.08 L 121.845,-333.07 L 108.235,-333.07 L 108.235,-329.08 L 94.7859,-329.08
 L 94.7859,-333.07 L 81.1765,-333.07 L 81.1765,-329.08 L 67.7271,-329.08 L 67.7271,-333.07 L 54.1176,-333.07
 L 54.1176,-329.08 L 40.6682,-329.08 L 40.6682,-333.07 L 27.0588,-333.07 L 27.0588,-329.08 L 13.6094,-329.08
 L 13.6094,-333.07 L 0,-333.07 L 0,-317.716 L -3.98999,-317.716 L -3.98999,-306.273 L 0,-306.273
 L 0,-294.989 L -3.98999,-294.989 L -3.98999,-283.545 L 0,-283.545 L 0,-272.262 L -3.98999,-272.262
 L -3.98999,-260.818 L 0,-260.818 L 0,-249.535 L -3.98999,-249.535 L -3.98999,-238.091 L 0,-238.091
 L 0,-226.807 L -3.98999,-226.807 L -3.98999,-215.364 L 0,-215.364 L 0,-200.01 L 13.6094,-200.01
 z
M 37.2779,-311.843 L 35.818,-312.818 L 34.8425,-314.278 L 34.5,-316 L 34.8425,-317.722 L 35.818,-319.182
 L 37.2779,-320.157 L 39,-320.5 L 40.7221,-320.157 L 42.182,-319.182 L 43.1575,-317.722 L 43.5,-316
 L 43.1575,-314.278 L 42.182,-312.818 L 40.7221,-311.843 L 39,-311.5 z
M 23.2779,-311.843 L 21.818,-312.818 L 20.8425,-314.278 L 20.5,-316 L 20.8425,-317.722 L 21.818,-319.182
 L 23.2779,-320.157 L 25,-320.5 L 26.7221,-320.157 L 28.182,-319.182 L 29.1575,-317.722 L 29.5,-316
 L 29.1575,-314.278 L 28.182,-312.818 L 26.7221,-311.843 L 25,-311.5 z
M 178.852,-313.228 L 177.879,-313.879 L 177.228,-314.852 L 177,-316 L 177.228,-317.148 L 177.879,-318.121
 L 178.852,-318.772 L 180,-319 L 181.148,-318.772 L 182.121,-318.121 L 182.772,-317.148 L 183,-316
 L 182.772,-314.852 L 182.121,-313.879 L 181.148,-313.228 L 180,-313 z
M 150,-309 L 150,-319 L 170,-319 L 170,-309 z
M 200,-316 L 200,-318.5 L 208,-318.5 L 208,-316 z
M -20,-280 L -110,-280 L -110,-289.99 L -130,-289.99 L -130,-280 L -220,-280
 L -220,-180 L -20,-180 z
M -75,-245 L -75,-246 L -64,-246 L -64,-245 z
M -35,-245 L -35,-246 L -24,-246 L -24,-245 z
M -55,-245 L -55,-246 L -44,-246 L -44,-245 z
M -135,-245 L -135,-246 L -124,-246 L -124,-245 z
M -155,-245 L -155,-246 L -144,-246 L -144,-245 z
M -115,-245 L -115,-246 L -104,-246 L -104,-245 z
M -215,-245 L -215,-246 L -204,-246 L -204,-245 z
M -184,-245 L -195,-245 L -195,-246 L -184,-246 z
M -164,-245 L -175,-245 L -175,-246 L -164,-246 z
M -95,-245 L -95,-246 L -84,-246 L -84,-245 z
M -205,-210 L -205,-211 L -194,-211 L -194,-210 z
M -125,-210 L -125,-211 L -114,-211 L -114,-210 z
M -85,-210 L -85,-211 L -74,-211 L -74,-210 z
M -165,-210 L -165,-211 L -154,-211 L -154,-210 z
M -134,-210 L -145,-210 L -145,-211 L -134,-211 z
M -54,-210 L -65,-210 L -65,-211 L -54,-211 z
M 148.824,3.98999 L 162.433,3.98999 L 162.433,-0 L 175.882,-0 L 175.882,3.98999 L 189.492,3.98999
 L 189.492,-0 L 202.941,-0 L 202.941,3.98999 L 216.551,3.98999 L 216.551,-0 L 230.08,-0
 L 230.08,-12 L 234.07,-12 L 234.07,-24.08 L 230.08,-24.08 L 230.08,-36 L 234.07,-36
 L 234.07,-48.08 L 230.08,-48.08 L 230.08,-60 L 234.07,-60 L 234.07,-72.08 L 230.08,-72.08
 L 230.08,-84 L 234.07,-84 L 234.07,-96.08 L 230.08,-96.08 L 230.08,-108 L 234.07,-108
 L 234.07,-120.08 L 230.08,-120.08 L 230.08,-132 L 234.07,-132 L 234.07,-144.08 L 230.08,-144.08
 L 230.08,-156 L 234.07,-156 L 234.07,-168.08 L 230.08,-168.08 L 230.08,-180.08 L 216.551,-180.08
 L 216.551,-184.07 L 202.941,-184.07 L 202.941,-180.08 L 189.492,-180.08 L 189.492,-184.07 L 175.882,-184.07
 L 175.882,-180.08 L 162.433,-180.08 L 162.433,-184.07 L 148.824,-184.07 L 148.824,-180.08 L 135.374,-180.08
 L 135.374,-184.07 L 121.765,-184.07 L 121.765,-180.08 L 108.315,-180.08 L 108.315,-184.07 L 94.7059,-184.07
 L 94.7059,-180.08 L 81.2565,-180.08 L 81.2565,-184.07 L 67.647,-184.07 L 67.647,-180.08 L 54.1976,-180.08
 L 54.1976,-184.07 L 40.5882,-184.07 L 40.5882,-180.08 L 27.1388,-180.08 L 27.1388,-184.07 L 13.5294,-184.07
 L 13.5294,-180.08 L 0,-180.08 L 0,-168.08 L -3.98999,-168.08 L -3.98999,-156 L 0,-156
 L 0,-144.08 L -3.98999,-144.08 L -3.98999,-132 L 0,-132 L 0,-120.08 L -3.98999,-120.08
 L -3.98999,-108 L 0,-108 L 0,-96.08 L -3.98999,-96.08 L -3.98999,-84 L 0,-84
 L 0,-72.08 L -3.98999,-72.08 L -3.98999,-60 L 0,-60 L 0,-48.08 L -3.98999,-48.08
 L -3.98999,-36 L 0,-36 L 0,-24.08 L -3.98999,-24.08 L -3.98999,-12 L 0,-12
 L 0,-0 L 13.5294,-0 L 13.5294,3.98999 L 27.1388,3.98999 L 27.1388,-0 L 40.5882,-0
 L 40.5882,3.98999 L 54.1976,3.98999 L 54.1976,-0 L 67.647,-0 L 67.647,3.98999 L 81.2565,3.98999
 L 81.2565,-0 L 94.7059,-0 L 94.7059,3.98999 L 108.315,3.98999 L 108.315,-0 L 121.765,-0
 L 121.765,3.98999 L 135.374,3.98999 L 135.374,-0 L 148.824,-0 z
M -18,-54 L -133.424,-77.2335 L -198,-139 L -218,-139 L -218,10 L -18,10
 z
M -200.007,-121.723 L -197.384,-124.637 L -189.451,-117.494 L -192.074,-114.58 z
M -211.92,-106.193 L -211.92,-117.476 L -208,-117.476 L -208,-106.193 z
M -184.022,-107.33 L -181.399,-110.243 L -173.466,-103.1 L -176.089,-100.187 z
M -168.037,-92.9373 L -165.414,-95.8504 L -157.481,-88.7074 L -160.104,-85.7943 z
M -211.92,-83.4655 L -211.92,-94.7491 L -208,-94.7491 L -208,-83.4655 z
M -152.052,-78.5442 L -149.429,-81.4573 L -141.496,-74.3143 L -144.119,-71.4012 z
M -211.92,-60.7382 L -211.92,-72.0218 L -208,-72.0218 L -208,-60.7382 z
M -122.462,-61.1368 L -121.781,-64.9972 L -110.137,-62.9441 L -110.818,-59.0837 z
M -99.0163,-57.0028 L -98.3356,-60.8632 L -86.6918,-58.8101 L -87.3725,-54.9496 z
M -75.5711,-52.8687 L -74.8904,-56.7292 L -63.2466,-54.6761 L -63.9273,-50.8156 z
M -52.1259,-48.7347 L -51.4452,-52.5952 L -39.8014,-50.542 L -40.4821,-46.6816 z
M -211.92,-38.0109 L -211.92,-49.2945 L -208,-49.2945 L -208,-38.0109 z
M -28,-27.92 L -28,-35.84 L -24.08,-35.84 L -24.08,-27.92 z
M -211.92,-15.2836 L -211.92,-26.5673 L -208,-26.5673 L -208,-15.2836 z
M -28,-11.92 L -28,-19.84 L -24.08,-19.84 L -24.08,-11.92 z
M -52,-0 L -52,-3.92 L -40.08,-3.92 L -40.08,-0 z
M -148,-0 L -148,-3.92 L -136.08,-3.92 L -136.08,-0 z
M -76,-0 L -76,-3.92 L -64.08,-3.92 L -64.08,-0 z
M -124,-0 L -124,-3.92 L -112.08,-3.92 L -112.08,-0 z
M -100,-0 L -100,-3.92 L -88.08,-3.92 L -88.08,-0 z
M -172,-0 L -172,-3.92 L -160.08,-3.92 L -160.08,-0 z
M -196,-0 L -196,-3.92 L -184.08,-3.92 L -184.08,-0 z
M 13.6094,64 L 27.0588,64 L 27.0588,67.99 L 40.6682,67.99 L 40.6682,64 L 54.1176,64
 L 54.1176,67.99 L 67.7271,67.99 L 67.7271,64 L 81.1765,64 L 81.1765,67.99 L 94.7859,67.99
 L 94.7859,64 L 108.235,64 L 108.235,67.99 L 121.845,67.99 L 121.845,64 L 135.294,64
 L 135.294,67.99 L 148.904,67.99 L 148.904,64 L 162.353,64 L 162.353,67.99 L 175.962,67.99
 L 175.962,64 L 189.412,64 L 189.412,67.99 L 203.021,67.99 L 203.021,64 L 216.471,64
 L 216.471,67.99 L 230.08,67.99 L 230.08,56 L 234.07,56 L 234.07,47.92 L 230.08,47.92
 L 230.08,40 L 234.07,40 L 234.07,31.92 L 230.08,31.92 L 230.08,19.93 L 216.471,19.93
 L 216.471,23.92 L 203.021,23.92 L 203.021,19.93 L 189.412,19.93 L 189.412,23.92 L 175.962,23.92
 L 175.962,19.93 L 162.353,19.93 L 162.353,23.92 L 148.904,23.92 L 148.904,19.93 L 135.294,19.93
 L 135.294,23.92 L 121.845,23.92 L 121.845,19.93 L 108.235,19.93 L 108.235,23.92 L 94.7859,23.92
 L 94.7859,19.93 L 81.1765,19.93 L 81.1765,23.92 L 67.7271,23.92 L 67.7271,19.93 L 54.1176,19.93
 L 54.1176,23.92 L 40.6682,23.92 L 40.6682,19.93 L 27.0588,19.93 L 27.0588,23.92 L 13.6094,23.92
 L 13.6094,19.93 L 0,19.93 L 0,31.92 L -3.98999,31.92 L -3.98999,40 L 0,40
 L 0,47.92 L -3.98999,47.92 L -3.98999,56 L 0,56 L 0,67.99 L 13.6094,67.99
 z
M 15,43 L 15,37 L 24,37 L 24,26.99 L 38,26.99 L 38,37
 L 193,37 L 193,26.99 L 207,26.99 L 207,37 L 215,37 L 215,43
 z
M -18,115 L -133.424,91.7665 L -198,30 L -218,30 L -218,179 L -18,179
 z
M -200.007,47.2765 L -197.384,44.3634 L -189.451,51.5064 L -192.074,54.4195 z
M -211.92,62.8073 L -211.92,51.5236 L -208,51.5236 L -208,62.8073 z
M -184.022,61.6696 L -181.399,58.7565 L -173.466,65.8995 L -176.089,68.8126 z
M -168.037,76.0627 L -165.414,73.1496 L -157.481,80.2926 L -160.104,83.2057 z
M -211.92,85.5345 L -211.92,74.2509 L -208,74.2509 L -208,85.5345 z
M -152.052,90.4558 L -149.429,87.5427 L -141.496,94.6857 L -144.119,97.5988 z
M -211.92,108.262 L -211.92,96.9782 L -208,96.9782 L -208,108.262 z
M -122.462,107.863 L -121.781,104.003 L -110.137,106.056 L -110.818,109.916 z
M -99.0163,111.997 L -98.3356,108.137 L -86.6918,110.19 L -87.3725,114.05 z
M -75.5711,116.131 L -74.8904,112.271 L -63.2466,114.324 L -63.9273,118.184 z
M -52.1259,120.265 L -51.4452,116.405 L -39.8014,118.458 L -40.4821,122.318 z
M -211.92,130.989 L -211.92,119.705 L -208,119.705 L -208,130.989 z
M -28,141.08 L -28,133.16 L -24.08,133.16 L -24.08,141.08 z
M -211.92,153.716 L -211.92,142.433 L -208,142.433 L -208,153.716 z
M -28,157.08 L -28,149.16 L -24.08,149.16 L -24.08,157.08 z
M -172,169 L -172,165.08 L -160.08,165.08 L -160.08,169 z
M -148,169 L -148,165.08 L -136.08,165.08 L -136.08,169 z
M -76,169 L -76,165.08 L -64.08,165.08 L -64.08,169 z
M -100,169 L -100,165.08 L -88.08,165.08 L -88.08,169 z
M -196,169 L -196,165.08 L -184.08,165.08 L -184.08,169 z
M -52,169 L -52,165.08 L -40.08,165.08 L -40.08,169 z
M -112.08,169 L -124,169 L -124,165.08 L -112.08,165.08 z
M 27.1388,180.751 L 40.5882,180.751 L 40.5882,184.741 L 54.1976,184.741 L 54.1976,180.751 L 67.647,180.751
 L 67.647,184.741 L 81.2565,184.741 L 81.2565,180.751 L 94.7059,180.751 L 94.7059,184.741 L 108.315,184.741
 L 108.315,180.751 L 121.765,180.751 L 121.765,184.741 L 135.374,184.741 L 135.374,180.751 L 148.824,180.751
 L 148.824,184.741 L 162.433,184.741 L 162.433,180.751 L 175.882,180.751 L 175.882,184.741 L 189.492,184.741
 L 189.492,180.751 L 202.941,180.751 L 202.941,184.741 L 216.551,184.741 L 216.551,180.751 L 230.08,180.751
 L 230.08,170.001 L 234.07,170.001 L 234.07,159.171 L 230.08,159.171 L 230.08,148.501 L 234.07,148.501
 L 234.07,137.671 L 230.08,137.671 L 230.08,127 L 234.07,127 L 234.07,116.17 L 230.08,116.17
 L 230.08,105.5 L 234.07,105.5 L 234.07,94.6701 L 230.08,94.6701 L 230.08,83.92 L 0,83.92
 L 0,94.6701 L -3.98999,94.6701 L -3.98999,105.5 L 0,105.5 L 0,116.17 L -3.98999,116.17
 L -3.98999,127 L 0,127 L 0,137.671 L -3.98999,137.671 L -3.98999,148.501 L 0,148.501
 L 0,159.171 L -3.98999,159.171 L -3.98999,170.001 L 0,170.001 L 0,180.751 L 13.5294,180.751
 L 13.5294,184.741 L 27.1388,184.741 z
M 160,105.751 L 160,94.751 L 161,94.751 L 161,105.751 z
M 180,105.751 L 180,94.751 L 181,94.751 L 181,105.751 z
M 89,106.251 L 89,95.251 L 90,95.251 L 90,106.251 z
M 109,106.251 L 109,95.251 L 110,95.251 L 110,106.251 z
M 29,106.251 L 29,95.251 L 30,95.251 L 30,106.251 z
M 49,106.251 L 49,95.251 L 50,95.251 L 50,106.251 z
M 129,106.251 L 129,95.251 L 130,95.251 L 130,106.251 z
M 69,106.251 L 69,95.251 L 70,95.251 L 70,106.251 z
M 133.407,99.733 L 132.904,99.397 L 132.568,98.8941 L 132.45,98.301 L 132.568,97.7078 L 132.904,97.205
 L 133.407,96.869 L 134,96.751 L 134.593,96.869 L 135.096,97.205 L 135.432,97.7078 L 135.55,98.301
 L 135.432,98.8941 L 135.096,99.397 L 134.593,99.733 L 134,99.851 z
M 113.407,99.733 L 112.904,99.397 L 112.568,98.8941 L 112.45,98.301 L 112.568,97.7078 L 112.904,97.205
 L 113.407,96.869 L 114,96.751 L 114.593,96.869 L 115.096,97.205 L 115.432,97.7078 L 115.55,98.301
 L 115.432,98.8941 L 115.096,99.397 L 114.593,99.733 L 114,99.851 z
M 33.4068,99.733 L 32.904,99.397 L 32.568,98.8941 L 32.45,98.301 L 32.568,97.7078 L 32.904,97.205
 L 33.4068,96.869 L 34,96.751 L 34.5932,96.869 L 35.096,97.205 L 35.432,97.7078 L 35.55,98.301
 L 35.432,98.8941 L 35.096,99.397 L 34.5932,99.733 L 34,99.851 z
M 93.4068,99.733 L 92.904,99.397 L 92.568,98.8941 L 92.45,98.301 L 92.568,97.7078 L 92.904,97.205
 L 93.4068,96.869 L 94,96.751 L 94.5932,96.869 L 95.096,97.205 L 95.432,97.7078 L 95.55,98.301
 L 95.432,98.8941 L 95.096,99.397 L 94.5932,99.733 L 94,99.851 z
M 73.4068,99.733 L 72.904,99.397 L 72.568,98.8941 L 72.45,98.301 L 72.568,97.7078 L 72.904,97.205
 L 73.4068,96.869 L 74,96.751 L 74.5932,96.869 L 75.096,97.205 L 75.432,97.7078 L 75.55,98.301
 L 75.432,98.8941 L 75.096,99.397 L 74.5932,99.733 L 74,99.851 z
M 53.4068,99.733 L 52.904,99.397 L 52.568,98.8941 L 52.45,98.301 L 52.568,97.7078 L 52.904,97.205
 L 53.4068,96.869 L 54,96.751 L 54.5932,96.869 L 55.096,97.205 L 55.432,97.7078 L 55.55,98.301
 L 55.432,98.8941 L 55.096,99.397 L 54.5932,99.733 L 54,99.851 z
M 53.4068,104.633 L 52.904,104.297 L 52.568,103.794 L 52.45,103.201 L 52.568,102.608 L 52.904,102.105
 L 53.4068,101.769 L 54,101.651 L 54.5932,101.769 L 55.096,102.105 L 55.432,102.608 L 55.55,103.201
 L 55.432,103.794 L 55.096,104.297 L 54.5932,104.633 L 54,104.751 z
M 33.4068,104.633 L 32.904,104.297 L 32.568,103.794 L 32.45,103.201 L 32.568,102.608 L 32.904,102.105
 L 33.4068,101.769 L 34,101.651 L 34.5932,101.769 L 35.096,102.105 L 35.432,102.608 L 35.55,103.201
 L 35.432,103.794 L 35.096,104.297 L 34.5932,104.633 L 34,104.751 z
M 93.4068,104.633 L 92.904,104.297 L 92.568,103.794 L 92.45,103.201 L 92.568,102.608 L 92.904,102.105
 L 93.4068,101.769 L 94,101.651 L 94.5932,101.769 L 95.096,102.105 L 95.432,102.608 L 95.55,103.201
 L 95.432,103.794 L 95.096,104.297 L 94.5932,104.633 L 94,104.751 z
M 113.407,104.633 L 112.904,104.297 L 112.568,103.794 L 112.45,103.201 L 112.568,102.608 L 112.904,102.105
 L 113.407,101.769 L 114,101.651 L 114.593,101.769 L 115.096,102.105 L 115.432,102.608 L 115.55,103.201
 L 115.432,103.794 L 115.096,104.297 L 114.593,104.633 L 114,104.751 z
M 73.4068,104.633 L 72.904,104.297 L 72.568,103.794 L 72.45,103.201 L 72.568,102.608 L 72.904,102.105
 L 73.4068,101.769 L 74,101.651 L 74.5932,101.769 L 75.096,102.105 L 75.432,102.608 L 75.55,103.201
 L 75.432,103.794 L 75.096,104.297 L 74.5932,104.633 L 74,104.751 z
M 133.407,104.633 L 132.904,104.297 L 132.568,103.794 L 132.45,103.201 L 132.568,102.608 L 132.904,102.105
 L 133.407,101.769 L 134,101.651 L 134.593,101.769 L 135.096,102.105 L 135.432,102.608 L 135.55,103.201
 L 135.432,103.794 L 135.096,104.297 L 134.593,104.633 L 134,104.751 z
M 47.8433,113.594 L 48.8328,112.933 L 50,112.701 L 51.1672,112.933 L 52.1567,113.594 L 52.8178,114.584
 L 53.05,115.751 L 52.8178,116.918 L 52.1567,117.908 L 51.1672,118.569 L 50,118.801 L 48.8328,118.569
 L 47.8433,117.908 L 47.1822,116.918 L 46.95,115.751 L 47.1822,114.584 z
M 108.833,118.569 L 107.843,117.908 L 107.182,116.918 L 106.95,115.751 L 107.182,114.584 L 107.843,113.594
 L 108.833,112.933 L 110,112.701 L 111.167,112.933 L 112.157,113.594 L 112.818,114.584 L 113.05,115.751
 L 112.818,116.918 L 112.157,117.908 L 111.167,118.569 L 110,118.801 z
M 68.8328,118.569 L 67.8433,117.908 L 67.1822,116.918 L 66.95,115.751 L 67.1822,114.584 L 67.8433,113.594
 L 68.8328,112.933 L 70,112.701 L 71.1672,112.933 L 72.1567,113.594 L 72.8178,114.584 L 73.05,115.751
 L 72.8178,116.918 L 72.1567,117.908 L 71.1672,118.569 L 70,118.801 z
M 88.8328,118.569 L 87.8433,117.908 L 87.1822,116.918 L 86.95,115.751 L 87.1822,114.584 L 87.8433,113.594
 L 88.8328,112.933 L 90,112.701 L 91.1672,112.933 L 92.1567,113.594 L 92.8178,114.584 L 93.05,115.751
 L 92.8178,116.918 L 92.1567,117.908 L 91.1672,118.569 L 90,118.801 z
M 198.833,118.569 L 197.843,117.908 L 197.182,116.918 L 196.95,115.751 L 197.182,114.584 L 197.843,113.594
 L 198.833,112.933 L 200,112.701 L 201.167,112.933 L 202.157,113.594 L 202.818,114.584 L 203.05,115.751
 L 202.818,116.918 L 202.157,117.908 L 201.167,118.569 L 200,118.801 z
M 128.833,118.569 L 127.843,117.908 L 127.182,116.918 L 126.95,115.751 L 127.182,114.584 L 127.843,113.594
 L 128.833,112.933 L 130,112.701 L 131.167,112.933 L 132.157,113.594 L 132.818,114.584 L 133.05,115.751
 L 132.818,116.918 L 132.157,117.908 L 131.167,118.569 L 130,118.801 z
M 160,125.751 L 160,114.751 L 161,114.751 L 161,125.751 z
M 180,125.751 L 180,114.751 L 181,114.751 L 181,125.751 z
M 89,146.251 L 89,135.251 L 90,135.251 L 90,146.251 z
M 69,146.251 L 69,135.251 L 70,135.251 L 70,146.251 z
M 129,146.251 L 129,135.251 L 130,135.251 L 130,146.251 z
M 29,146.251 L 29,135.251 L 30,135.251 L 30,146.251 z
M 49,146.251 L 49,135.251 L 50,135.251 L 50,146.251 z
M 109,146.251 L 109,135.251 L 110,135.251 L 110,146.251 z
M 165,155.751 L 165,136.451 L 191.6,136.451 L 191.6,155.751 z
M 93.4068,139.733 L 92.904,139.397 L 92.568,138.894 L 92.45,138.301 L 92.568,137.708 L 92.904,137.205
 L 93.4068,136.869 L 94,136.751 L 94.5932,136.869 L 95.096,137.205 L 95.432,137.708 L 95.55,138.301
 L 95.432,138.894 L 95.096,139.397 L 94.5932,139.733 L 94,139.851 z
M 33.4068,139.733 L 32.904,139.397 L 32.568,138.894 L 32.45,138.301 L 32.568,137.708 L 32.904,137.205
 L 33.4068,136.869 L 34,136.751 L 34.5932,136.869 L 35.096,137.205 L 35.432,137.708 L 35.55,138.301
 L 35.432,138.894 L 35.096,139.397 L 34.5932,139.733 L 34,139.851 z
M 73.4068,139.733 L 72.904,139.397 L 72.568,138.894 L 72.45,138.301 L 72.568,137.708 L 72.904,137.205
 L 73.4068,136.869 L 74,136.751 L 74.5932,136.869 L 75.096,137.205 L 75.432,137.708 L 75.55,138.301
 L 75.432,138.894 L 75.096,139.397 L 74.5932,139.733 L 74,139.851 z
M 113.407,139.733 L 112.904,139.397 L 112.568,138.894 L 112.45,138.301 L 112.568,137.708 L 112.904,137.205
 L 113.407,136.869 L 114,136.751 L 114.593,136.869 L 115.096,137.205 L 115.432,137.708 L 115.55,138.301
 L 115.432,138.894 L 115.096,139.397 L 114.593,139.733 L 114,139.851 z
M 53.4068,139.733 L 52.904,139.397 L 52.568,138.894 L 52.45,138.301 L 52.568,137.708 L 52.904,137.205
 L 53.4068,136.869 L 54,136.751 L 54.5932,136.869 L 55.096,137.205 L 55.432,137.708 L 55.55,138.301
 L 55.432,138.894 L 55.096,139.397 L 54.5932,139.733 L 54,139.851 z
M 133.407,139.733 L 132.904,139.397 L 132.568,138.894 L 132.45,138.301 L 132.568,137.708 L 132.904,137.205
 L 133.407,136.869 L 134,136.751 L 134.593,136.869 L 135.096,137.205 L 135.432,137.708 L 135.55,138.301
 L 135.432,138.894 L 135.096,139.397 L 134.593,139.733 L 134,139.851 z
M 53.4068,144.633 L 52.904,144.297 L 52.568,143.794 L 52.45,143.201 L 52.568,142.608 L 52.904,142.105
 L 53.4068,141.769 L 54,141.651 L 54.5932,141.769 L 55.096,142.105 L 55.432,142.608 L 55.55,143.201
 L 55.432,143.794 L 55.096,144.297 L 54.5932,144.633 L 54,144.751 z
M 33.4068,144.633 L 32.904,144.297 L 32.568,143.794 L 32.45,143.201 L 32.568,142.608 L 32.904,142.105
 L 33.4068,141.769 L 34,141.651 L 34.5932,141.769 L 35.096,142.105 L 35.432,142.608 L 35.55,143.201
 L 35.432,143.794 L 35.096,144.297 L 34.5932,144.633 L 34,144.751 z
M 133.407,144.633 L 132.904,144.297 L 132.568,143.794 L 132.45,143.201 L 132.568,142.608 L 132.904,142.105
 L 133.407,141.769 L 134,141.651 L 134.593,141.769 L 135.096,142.105 L 135.432,142.608 L 135.55,143.201
 L 135.432,143.794 L 135.096,144.297 L 134.593,144.633 L 134,144.751 z
M 73.4068,144.633 L 72.904,144.297 L 72.568,143.794 L 72.45,143.201 L 72.568,142.608 L 72.904,142.105
 L 73.4068,141.769 L 74,141.651 L 74.5932,141.769 L 75.096,142.105 L 75.432,142.608 L 75.55,143.201
 L 75.432,143.794 L 75.096,144.297 L 74.5932,144.633 L 74,144.751 z
M 113.407,144.633 L 112.904,144.297 L 112.568,143.794 L 112.45,143.201 L 112.568,142.608 L 112.904,142.105
 L 113.407,141.769 L 114,141.651 L 114.593,141.769 L 115.096,142.105 L 115.432,142.608 L 115.55,143.201
 L 115.432,143.794 L 115.096,144.297 L 114.593,144.633 L 114,144.751 z
M 93.4068,144.633 L 92.904,144.297 L 92.568,143.794 L 92.45,143.201 L 92.568,142.608 L 92.904,142.105
 L 93.4068,141.769 L 94,141.651 L 94.5932,141.769 L 95.096,142.105 L 95.432,142.608 L 95.55,143.201
 L 95.432,143.794 L 95.096,144.297 L 94.5932,144.633 L 94,144.751 z
M 208.833,153.569 L 207.843,152.908 L 207.182,151.918 L 206.95,150.751 L 207.182,149.584 L 207.843,148.594
 L 208.833,147.933 L 210,147.701 L 211.167,147.933 L 212.157,148.594 L 212.818,149.584 L 213.05,150.751
 L 212.818,151.918 L 212.157,152.908 L 211.167,153.569 L 210,153.801 z
M 28.8328,158.569 L 27.8433,157.908 L 27.1822,156.918 L 26.95,155.751 L 27.1822,154.584 L 27.8433,153.594
 L 28.8328,152.933 L 30,152.701 L 31.1672,152.933 L 32.1567,153.594 L 32.8178,154.584 L 33.05,155.751
 L 32.8178,156.918 L 32.1567,157.908 L 31.1672,158.569 L 30,158.801 z
M 128.833,158.569 L 127.843,157.908 L 127.182,156.918 L 126.95,155.751 L 127.182,154.584 L 127.843,153.594
 L 128.833,152.933 L 130,152.701 L 131.167,152.933 L 132.157,153.594 L 132.818,154.584 L 133.05,155.751
 L 132.818,156.918 L 132.157,157.908 L 131.167,158.569 L 130,158.801 z
M 48.8328,158.569 L 47.8433,157.908 L 47.1822,156.918 L 46.95,155.751 L 47.1822,154.584 L 47.8433,153.594
 L 48.8328,152.933 L 50,152.701 L 51.1672,152.933 L 52.1567,153.594 L 52.8178,154.584 L 53.05,155.751
 L 52.8178,156.918 L 52.1567,157.908 L 51.1672,158.569 L 50,158.801 z
M 88.8328,158.569 L 87.8433,157.908 L 87.1822,156.918 L 86.95,155.751 L 87.1822,154.584 L 87.8433,153.594
 L 88.8328,152.933 L 90,152.701 L 91.1672,152.933 L 92.1567,153.594 L 92.8178,154.584 L 93.05,155.751
 L 92.8178,156.918 L 92.1567,157.908 L 91.1672,158.569 L 90,158.801 z
M 108.833,158.569 L 107.843,157.908 L 107.182,156.918 L 106.95,155.751 L 107.182,154.584 L 107.843,153.594
 L 108.833,152.933 L 110,152.701 L 111.167,152.933 L 112.157,153.594 L 112.818,154.584 L 113.05,155.751
 L 112.818,156.918 L 112.157,157.908 L 111.167,158.569 L 110,158.801 z
M 68.8328,158.569 L 67.8433,157.908 L 67.1822,156.918 L 66.95,155.751 L 67.1822,154.584 L 67.8433,153.594
 L 68.8328,152.933 L 70,152.701 L 71.1672,152.933 L 72.1567,153.594 L 72.8178,154.584 L 73.05,155.751
 L 72.8178,156.918 L 72.1567,157.908 L 71.1672,158.569 L 70,158.801 z
M 32.1567,117.908 L 31.1672,118.569 L 30,118.801 L 28.8328,118.569 L 27.8433,117.908 L 27.1822,116.918
 L 26.95,115.751 L 27.1822,114.584 L 27.8433,113.594 L 28.8328,112.933 L 30,112.701 L 31.1672,112.933
 L 32.1567,113.594 L 32.8178,114.584 L 33.05,115.751 L 32.8178,116.918 z
M 230.08,295.961 L 234.07,295.961 L 234.07,283.98 L 230.08,283.98 L 230.08,272.159 L 234.07,272.159
 L 234.07,260.177 L 230.08,260.177 L 230.08,248.356 L 234.07,248.356 L 234.07,236.375 L 230.08,236.375
 L 230.08,224.554 L 234.07,224.554 L 234.07,212.572 L 230.08,212.572 L 230.08,200.671 L 216.551,200.671
 L 216.551,196.681 L 202.941,196.681 L 202.941,200.671 L 189.492,200.671 L 189.492,196.681 L 175.882,196.681
 L 175.882,200.671 L 162.433,200.671 L 162.433,196.681 L 148.824,196.681 L 148.824,200.671 L 135.374,200.671
 L 135.374,196.681 L 121.765,196.681 L 121.765,200.671 L 108.315,200.671 L 108.315,196.681 L 94.7059,196.681
 L 94.7059,200.671 L 81.2565,200.671 L 81.2565,196.681 L 67.647,196.681 L 67.647,200.671 L 54.1976,200.671
 L 54.1976,196.681 L 40.5882,196.681 L 40.5882,200.671 L 27.1388,200.671 L 27.1388,196.681 L 13.5294,196.681
 L 13.5294,200.671 L 0,200.671 L 0,212.572 L -3.98999,212.572 L -3.98999,224.554 L 0,224.554
 L 0,236.375 L -3.98999,236.375 L -3.98999,248.356 L 0,248.356 L 0,260.177 L -3.98999,260.177
 L -3.98999,272.159 L 0,272.159 L 0,283.98 L -3.98999,283.98 L -3.98999,295.961 L 0,295.961
 L 0,307.862 L 230.08,307.862 z
M 103.833,225.68 L 102.843,225.019 L 102.182,224.03 L 101.95,222.863 L 102.182,221.695 L 102.843,220.706
 L 103.833,220.045 L 105,219.812 L 106.167,220.045 L 107.157,220.706 L 107.818,221.695 L 108.05,222.863
 L 107.818,224.03 L 107.157,225.019 L 106.167,225.68 L 105,225.912 z
M 58.8328,225.68 L 57.8433,225.019 L 57.1822,224.03 L 56.95,222.863 L 57.1822,221.695 L 57.8433,220.706
 L 58.8328,220.045 L 60,219.812 L 61.1672,220.045 L 62.1567,220.706 L 62.8178,221.695 L 63.05,222.863
 L 62.8178,224.03 L 62.1567,225.019 L 61.1672,225.68 L 60,225.912 z
M 38.8328,225.68 L 37.8433,225.019 L 37.1822,224.03 L 36.95,222.863 L 37.1822,221.695 L 37.8433,220.706
 L 38.8328,220.045 L 40,219.812 L 41.1672,220.045 L 42.1567,220.706 L 42.8178,221.695 L 43.05,222.863
 L 42.8178,224.03 L 42.1567,225.019 L 41.1672,225.68 L 40,225.912 z
M 18.8328,225.68 L 17.8433,225.019 L 17.1822,224.03 L 16.95,222.863 L 17.1822,221.695 L 17.8433,220.706
 L 18.8328,220.045 L 20,219.812 L 21.1672,220.045 L 22.1567,220.706 L 22.8178,221.695 L 23.05,222.863
 L 22.8178,224.03 L 22.1567,225.019 L 21.1672,225.68 L 20,225.912 z
M 163.833,225.68 L 162.843,225.019 L 162.182,224.03 L 161.95,222.863 L 162.182,221.695 L 162.843,220.706
 L 163.833,220.045 L 165,219.812 L 166.167,220.045 L 167.157,220.706 L 167.818,221.695 L 168.05,222.863
 L 167.818,224.03 L 167.157,225.019 L 166.167,225.68 L 165,225.912 z
M 188.833,225.68 L 187.843,225.019 L 187.182,224.03 L 186.95,222.863 L 187.182,221.695 L 187.843,220.706
 L 188.833,220.045 L 190,219.812 L 191.167,220.045 L 192.157,220.706 L 192.818,221.695 L 193.05,222.863
 L 192.818,224.03 L 192.157,225.019 L 191.167,225.68 L 190,225.912 z
M 143.833,225.68 L 142.843,225.019 L 142.182,224.03 L 141.95,222.863 L 142.182,221.695 L 142.843,220.706
 L 143.833,220.045 L 145,219.812 L 146.167,220.045 L 147.157,220.706 L 147.818,221.695 L 148.05,222.863
 L 147.818,224.03 L 147.157,225.019 L 146.167,225.68 L 145,225.912 z
M 78.8328,225.68 L 77.8433,225.019 L 77.1822,224.03 L 76.95,222.863 L 77.1822,221.695 L 77.8433,220.706
 L 78.8328,220.045 L 80,219.812 L 81.1672,220.045 L 82.1567,220.706 L 82.8178,221.695 L 83.05,222.863
 L 82.8178,224.03 L 82.1567,225.019 L 81.1672,225.68 L 80,225.912 z
M 208.833,225.68 L 207.843,225.019 L 207.182,224.03 L 206.95,222.863 L 207.182,221.695 L 207.843,220.706
 L 208.833,220.045 L 210,219.812 L 211.167,220.045 L 212.157,220.706 L 212.818,221.695 L 213.05,222.863
 L 212.818,224.03 L 212.157,225.019 L 211.167,225.68 L 210,225.912 z
M 123.833,225.68 L 122.843,225.019 L 122.182,224.03 L 121.95,222.863 L 122.182,221.695 L 122.843,220.706
 L 123.833,220.045 L 125,219.812 L 126.167,220.045 L 127.157,220.706 L 127.818,221.695 L 128.05,222.863
 L 127.818,224.03 L 127.157,225.019 L 126.167,225.68 L 125,225.912 z
M 123.833,255.68 L 122.843,255.019 L 122.182,254.03 L 121.95,252.863 L 122.182,251.695 L 122.843,250.706
 L 123.833,250.045 L 125,249.812 L 126.167,250.045 L 127.157,250.706 L 127.818,251.695 L 128.05,252.863
 L 127.818,254.03 L 127.157,255.019 L 126.167,255.68 L 125,255.912 z
M 38.8328,255.68 L 37.8433,255.019 L 37.1822,254.03 L 36.95,252.863 L 37.1822,251.695 L 37.8433,250.706
 L 38.8328,250.045 L 40,249.812 L 41.1672,250.045 L 42.1567,250.706 L 42.8178,251.695 L 43.05,252.863
 L 42.8178,254.03 L 42.1567,255.019 L 41.1672,255.68 L 40,255.912 z
M 103.833,255.68 L 102.843,255.019 L 102.182,254.03 L 101.95,252.863 L 102.182,251.695 L 102.843,250.706
 L 103.833,250.045 L 105,249.812 L 106.167,250.045 L 107.157,250.706 L 107.818,251.695 L 108.05,252.863
 L 107.818,254.03 L 107.157,255.019 L 106.167,255.68 L 105,255.912 z
M 77.8433,250.706 L 78.8328,250.045 L 80,249.812 L 81.1672,250.045 L 82.1567,250.706 L 82.8178,251.695
 L 83.05,252.863 L 82.8178,254.03 L 82.1567,255.019 L 81.1672,255.68 L 80,255.912 L 78.8328,255.68
 L 77.8433,255.019 L 77.1822,254.03 L 76.95,252.863 L 77.1822,251.695 z
M 187.843,250.706 L 188.833,250.045 L 190,249.812 L 191.167,250.045 L 192.157,250.706 L 192.818,251.695
 L 193.05,252.863 L 192.818,254.03 L 192.157,255.019 L 191.167,255.68 L 190,255.912 L 188.833,255.68
 L 187.843,255.019 L 187.182,254.03 L 186.95,252.863 L 187.182,251.695 z
M 208.833,255.68 L 207.843,255.019 L 207.182,254.03 L 206.95,252.863 L 207.182,251.695 L 207.843,250.706
 L 208.833,250.045 L 210,249.812 L 211.167,250.045 L 212.157,250.706 L 212.818,251.695 L 213.05,252.863
 L 212.818,254.03 L 212.157,255.019 L 211.167,255.68 L 210,255.912 z
M 18.8328,255.68 L 17.8433,255.019 L 17.1822,254.03 L 16.95,252.863 L 17.1822,251.695 L 17.8433,250.706
 L 18.8328,250.045 L 20,249.812 L 21.1672,250.045 L 22.1567,250.706 L 22.8178,251.695 L 23.05,252.863
 L 22.8178,254.03 L 22.1567,255.019 L 21.1672,255.68 L 20,255.912 z
M 78.8328,285.68 L 77.8433,285.019 L 77.1822,284.03 L 76.95,282.862 L 77.1822,281.695 L 77.8433,280.706
 L 78.8328,280.045 L 80,279.812 L 81.1672,280.045 L 82.1567,280.706 L 82.8178,281.695 L 83.05,282.862
 L 82.8178,284.03 L 82.1567,285.019 L 81.1672,285.68 L 80,285.913 z
M 123.833,285.68 L 122.843,285.019 L 122.182,284.03 L 121.95,282.862 L 122.182,281.695 L 122.843,280.706
 L 123.833,280.045 L 125,279.812 L 126.167,280.045 L 127.157,280.706 L 127.818,281.695 L 128.05,282.862
 L 127.818,284.03 L 127.157,285.019 L 126.167,285.68 L 125,285.913 z
M 18.8328,285.68 L 17.8433,285.019 L 17.1822,284.03 L 16.95,282.862 L 17.1822,281.695 L 17.8433,280.706
 L 18.8328,280.045 L 20,279.812 L 21.1672,280.045 L 22.1567,280.706 L 22.8178,281.695 L 23.05,282.862
 L 22.8178,284.03 L 22.1567,285.019 L 21.1672,285.68 L 20,285.913 z
M 143.833,285.68 L 142.843,285.019 L 142.182,284.03 L 141.95,282.862 L 142.182,281.695 L 142.843,280.706
 L 143.833,280.045 L 145,279.812 L 146.167,280.045 L 147.157,280.706 L 147.818,281.695 L 148.05,282.862
 L 147.818,284.03 L 147.157,285.019 L 146.167,285.68 L 145,285.913 z
M 38.8328,285.68 L 37.8433,285.019 L 37.1822,284.03 L 36.95,282.862 L 37.1822,281.695 L 37.8433,280.706
 L 38.8328,280.045 L 40,279.812 L 41.1672,280.045 L 42.1567,280.706 L 42.8178,281.695 L 43.05,282.862
 L 42.8178,284.03 L 42.1567,285.019 L 41.1672,285.68 L 40,285.913 z
M 58.8328,285.68 L 57.8433,285.019 L 57.1822,284.03 L 56.95,282.862 L 57.1822,281.695 L 57.8433,280.706
 L 58.8328,280.045 L 60,279.812 L 61.1672,280.045 L 62.1567,280.706 L 62.8178,281.695 L 63.05,282.862
 L 62.8178,284.03 L 62.1567,285.019 L 61.1672,285.68 L 60,285.913 z
M 163.833,285.68 L 162.843,285.019 L 162.182,284.03 L 161.95,282.862 L 162.182,281.695 L 162.843,280.706
 L 163.833,280.045 L 165,279.812 L 166.167,280.045 L 167.157,280.706 L 167.818,281.695 L 168.05,282.862
 L 167.818,284.03 L 167.157,285.019 L 166.167,285.68 L 165,285.913 z
M 103.833,285.68 L 102.843,285.019 L 102.182,284.03 L 101.95,282.862 L 102.182,281.695 L 102.843,280.706
 L 103.833,280.045 L 105,279.812 L 106.167,280.045 L 107.157,280.706 L 107.818,281.695 L 108.05,282.862
 L 107.818,284.03 L 107.157,285.019 L 106.167,285.68 L 105,285.913 z
M 188.833,285.68 L 187.843,285.019 L 187.182,284.03 L 186.95,282.862 L 187.182,281.695 L 187.843,280.706
 L 188.833,280.045 L 190,279.812 L 191.167,280.045 L 192.157,280.706 L 192.818,281.695 L 193.05,282.862
 L 192.818,284.03 L 192.157,285.019 L 191.167,285.68 L 190,285.913 z
M 208.833,285.68 L 207.843,285.019 L 207.182,284.03 L 206.95,282.862 L 207.182,281.695 L 207.843,280.706
 L 208.833,280.045 L 210,279.812 L 211.167,280.045 L 212.157,280.706 L 212.818,281.695 L 213.05,282.862
 L 212.818,284.03 L 212.157,285.019 L 211.167,285.68 L 210,285.913 z
M 62.1567,255.019 L 61.1672,255.68 L 60,255.912 L 58.8328,255.68 L 57.8433,255.019 L 57.1822,254.03
 L 56.95,252.863 L 57.1822,251.695 L 57.8433,250.706 L 58.8328,250.045 L 60,249.812 L 61.1672,250.045
 L 62.1567,250.706 L 62.8178,251.695 L 63.05,252.863 L 62.8178,254.03 z
M 167.157,255.019 L 166.167,255.68 L 165,255.912 L 163.833,255.68 L 162.843,255.019 L 162.182,254.03
 L 161.95,252.863 L 162.182,251.695 L 162.843,250.706 L 163.833,250.045 L 165,249.812 L 166.167,250.045
 L 167.157,250.706 L 167.818,251.695 L 168.05,252.863 L 167.818,254.03 z
M 147.157,255.019 L 146.167,255.68 L 145,255.912 L 143.833,255.68 L 142.843,255.019 L 142.182,254.03
 L 141.95,252.863 L 142.182,251.695 L 142.843,250.706 L 143.833,250.045 L 145,249.812 L 146.167,250.045
 L 147.157,250.706 L 147.818,251.695 L 148.05,252.863 L 147.818,254.03 z
" stroke="black" fill="lightgray" stroke-width="0.5"/></svg>
